.....................
----------------------------------------------------------------------
Ran 21 tests in 0.135s

OK
Name             Stmts   Miss Branch BrPart  Cover   Missing
------------------------------------------------------------
Collatz.py          34      0     10      0   100%
TestCollatz.py      88      0      0      0   100%
------------------------------------------------------------
TOTAL              122      0     10      0   100%
